{
  "products": [
    {
      "product_name": "OnePlus 7pro",
      "description": "Mobile phone",
      "price": "52000",
      "quantity": "9",
      "category": "Electronics",
      "image": "../../../assets/images/image1.png",
      "id": 7
    },
    {
      "product_name": "Product5",
      "description": "This is nice product to buy.",
      "price": "897",
      "quantity": "5",
      "category": "Beauty Product",
      "image": "../../../assets/images/image2.png",
      "id": 8
    },
    {
      "product_name": "Who says you cant? you do",
      "description": "Author: Daniel Chidiac",
      "price": "300",
      "quantity": 5,
      "category": "Books",
      "image": "../../../assets/images/image3.png",
      "id": 9
    },
    {
      "product_name": "product9",
      "description": "Mobile Phone",
      "price": "49000",
      "quantity": "9",
      "category": "Electronics",
      "image": "../../../assets/images/image1.png",
      "id": 10
    },
    {
      "product_name": "ewew",
      "description": "ede",
      "price": "44",
      "quantity": "4",
      "category": "ref",
      "image": "../../../assets/images/image1.png",
      "id": 11
    }
  ],
  "cart": []
}